<?xml version="1.0" encoding="utf-8"?>
<!-- Generator: Adobe Illustrator 22.1.0, SVG Export Plug-In . SVG Version: 6.00 Build 0)  -->
<svg version="1.1" id="Layer_1" xmlns="http://www.w3.org/2000/svg" xmlns:xlink="http://www.w3.org/1999/xlink" x="0px" y="0px"
	 viewBox="0 0 864 79" style="enable-background:new 0 0 864 79;" xml:space="preserve">
<style type="text/css">
	.st0{fill:#F2F2F2;}
</style>
<g>
	<path class="st0" d="M52.3,23.4c-0.5-0.5-1.3-1.1-2.5-1.8c-1.2-0.8-2.7-1.5-4.4-2.3c-1.7-0.7-3.6-1.4-5.6-1.9
		c-2-0.5-4.1-0.8-6.1-0.8c-3.7,0-6.5,0.7-8.3,2c-1.8,1.4-2.7,3.3-2.7,5.7c0,1.4,0.3,2.6,1,3.5c0.7,0.9,1.7,1.8,3,2.5
		c1.3,0.7,2.9,1.4,4.9,1.9c2,0.6,4.3,1.2,6.9,1.8c3.4,0.9,6.4,1.9,9.2,2.9c2.8,1,5.1,2.3,7,3.9c1.9,1.6,3.4,3.4,4.4,5.6
		c1,2.2,1.6,4.8,1.6,8c0,3.7-0.7,6.9-2.1,9.5c-1.4,2.6-3.3,4.8-5.6,6.4c-2.4,1.6-5.1,2.8-8.2,3.5c-3.1,0.7-6.3,1.1-9.7,1.1
		c-5.2,0-10.3-0.8-15.4-2.3c-5.1-1.6-9.6-3.8-13.6-6.6l5.9-11.6c0.6,0.6,1.6,1.3,3.2,2.3c1.5,0.9,3.3,1.9,5.4,2.8
		c2.1,0.9,4.4,1.7,6.9,2.4c2.5,0.6,5.1,1,7.8,1c7.4,0,11.1-2.4,11.1-7.1c0-1.5-0.4-2.8-1.3-3.8c-0.8-1-2-1.9-3.6-2.7
		s-3.4-1.5-5.6-2.1c-2.2-0.6-4.7-1.4-7.4-2.1c-3.3-0.9-6.2-1.9-8.6-3c-2.4-1.1-4.5-2.3-6.1-3.8c-1.6-1.5-2.8-3.1-3.6-5.1
		C9.4,31.4,9,29.2,9,26.5c0-3.5,0.6-6.6,1.9-9.3c1.3-2.7,3.1-5,5.4-6.8c2.3-1.8,5-3.2,8-4.1c3-0.9,6.3-1.4,9.8-1.4
		c4.9,0,9.3,0.8,13.4,2.3c4.1,1.5,7.6,3.3,10.7,5.4L52.3,23.4z"/>
	<path class="st0" d="M93.1,5.5h12.4l7.8,22.9L121,5.5h12.4l-11.8,31.4l8.8,22.1L150,5.3h14.6l-28.1,69h-11.3l-12-29l-12,29H90
		l-27.9-69h14.4L96.1,59l8.6-22.1L93.1,5.5z"/>
	<path class="st0" d="M219.6,62.6v11.8h-47.9v-69h47.1v11.8h-33.6v16.6h29.1v10.9h-29.1v18H219.6z"/>
	<path class="st0" d="M249.8,5.3h11.9l26.3,69h-13.8l-6.4-17.2h-24.1l-6.3,17.2h-13.8L249.8,5.3z M265.2,47.7l-9.5-27.1l-9.9,27.1
		H265.2z"/>
	<path class="st0" d="M340.3,17.1h-22.1v57.3h-13.3V17.1h-22.1V5.3h57.5V17.1z"/>
	<path class="st0" d="M423.6,31.9c-0.6,0-1.7-0.9-3.3-0.9c-9.6,0-20.5,18.6-26,28.3c-0.6,1.1-1.2,2.1-1.7,2.9
		C397,56.3,407.6,48,413.3,48c2.5,0,3.5,1.5,3.5,2.9c0,3-8.7,13.4-8.7,17.9c0,1.2,0.7,1.7,1.8,1.7c3.9,0,9.1-3.6,10-3.6
		c0.4,0,0.7,0.2,0.7,0.5c0,0.5-0.6,1.2-2.1,2l-0.4,0.2c-3.4,1.8-9.7,5-13.1,5c-4,0-5.1-2-5.1-4.5c0-2.7,1.4-5.8,2.2-7.4
		c1-1.9,2.1-4,3.8-7.1c0.4-0.8,0.6-1.3,0.6-1.6c0-0.2-0.1-0.4-0.4-0.4c-0.4,0-1.2,0.4-1.8,0.8c-8.5,4.8-14.9,14.4-17.7,18.9
		c-0.6,0.9-1.7,1.4-2.9,1.4c-2,0-3-1.2-3-2.7c0-1.5,1.7-4.8,1.7-4.8l0.6-1.2c2.7-4.9,7.1-12.9,9.2-16.2c-2.1,1.1-5.2,1.2-7.9,1.2
		h-3.9c-4,5.8-5.8,8.8-8.4,13c-2.8,4.5-5.9,12.5-6,12.5c-0.1,0-0.3,0-0.4-0.1c-0.6-0.3-3.1-1.7-3.1-6.1c0-1.7,0.4-4.3,2.6-8.3
		c2.1-4,4.5-7.4,6.9-11.2c-0.2,0-0.6,0.1-1,0.1c-0.9,0-2.2-0.3-2.2-2.2c0-0.6,0.1-1.2,0.6-1.2c1.4,0,2.4,0.4,4.4,0.4
		c3.5-4.3,7.3-10.7,11.7-10.7c2.7,0,3.8,0.9,3.8,1.7c0,0.3-0.1,0.6-0.4,0.8c-2.6,2.7-5.3,6.6-6.7,8.6c0.9,0.1,1.9,0.1,3.1,0.1h0.6
		c3.2,0,6.9,0,8.9-2.8c6.4-9.1,14.6-17.5,23.3-17.5h0.9c1,0,5,0.3,5,2.1C424.3,31.6,424.1,31.9,423.6,31.9z"/>
	<path class="st0" d="M448.5,67.9c0,1.1-4,3.1-7.2,4.5c-2.2,1-8.5,2.9-13.7,2.9c-4.4,0-8.2-1.2-8.2-5.3c0-5.5,4-10.7,6.8-13.6
		c4.5-4.8,10.7-9.1,17.4-9.1c2.4,0,4.3,0.9,4.3,3.7c0,5-8.3,10.9-16.3,10.9c-0.3,0-0.6-0.1-0.9-0.1c-1.2,2.1-2.5,4.7-2.5,6.7
		c0,1.9,1.2,3.3,4.9,3.3c4,0,9.4-1.9,13.2-4.1c0.5-0.3,1.1-0.8,1.6-0.8c0.1,0,0.1,0.1,0.3,0.1C448.4,67.4,448.5,67.6,448.5,67.9z
		 M443.3,50.4c-2.6,0-8.6,4.6-11.5,9.1c0.2,0,0.4,0.1,0.6,0.1c2.8,0,5.5-1.7,7.7-3.2c1.2-0.7,4.2-4.1,4.2-5.3c0-0.1,0-0.3-0.1-0.4
		C444.1,50.6,443.8,50.4,443.3,50.4z"/>
	<path class="st0" d="M480.8,74.3v-69h25.1c5.6,0,10.6,0.9,14.8,2.7c4.2,1.8,7.8,4.3,10.6,7.4c2.9,3.1,5,6.8,6.4,10.9
		c1.4,4.2,2.1,8.6,2.1,13.4c0,5.3-0.8,10-2.4,14.2c-1.6,4.2-3.9,7.9-6.9,10.9c-3,3-6.6,5.3-10.7,7s-8.9,2.5-14.1,2.5H480.8z
		 M526.4,39.7c0-3.3-0.5-6.4-1.4-9.1c-0.9-2.8-2.2-5.2-4-7.2c-1.8-2-3.9-3.6-6.5-4.7c-2.6-1.1-5.5-1.7-8.7-1.7h-11.7v45.5h11.7
		c3.3,0,6.2-0.6,8.8-1.8c2.6-1.2,4.7-2.8,6.4-4.8c1.7-2,3-4.5,3.9-7.2C526,46,526.4,43,526.4,39.7z"/>
	<path class="st0" d="M598.4,62.6v11.8h-47.9v-69h47.1v11.8h-33.6v16.6H593v10.9h-29.1v18H598.4z"/>
	<path class="st0" d="M660.6,17.1h-22.1v57.3h-13.3V17.1h-22.1V5.3h57.5V17.1z"/>
	<path class="st0" d="M681.9,5.3h11.9l26.3,69h-13.8l-6.4-17.2h-24.1l-6.3,17.2h-13.8L681.9,5.3z M697.4,47.7l-9.5-27.1L678,47.7
		H697.4z"/>
	<path class="st0" d="M727.7,74.3v-69h13.4v69H727.7z"/>
	<path class="st0" d="M755.5,74.3v-69h13.4v57.3h35.2v11.8H755.5z"/>
	<path class="st0" d="M853.4,23.4c-0.5-0.5-1.3-1.1-2.5-1.8c-1.2-0.8-2.7-1.5-4.4-2.3c-1.7-0.7-3.6-1.4-5.6-1.9
		c-2-0.5-4.1-0.8-6.1-0.8c-3.7,0-6.5,0.7-8.3,2c-1.8,1.4-2.7,3.3-2.7,5.7c0,1.4,0.3,2.6,1,3.5c0.7,0.9,1.7,1.8,3,2.5
		c1.3,0.7,2.9,1.4,4.9,1.9c2,0.6,4.3,1.2,6.9,1.8c3.4,0.9,6.4,1.9,9.2,2.9c2.8,1,5.1,2.3,7,3.9c1.9,1.6,3.4,3.4,4.4,5.6
		c1,2.2,1.6,4.8,1.6,8c0,3.7-0.7,6.9-2.1,9.5c-1.4,2.6-3.3,4.8-5.6,6.4c-2.4,1.6-5.1,2.8-8.2,3.5c-3.1,0.7-6.3,1.1-9.7,1.1
		c-5.2,0-10.3-0.8-15.4-2.3c-5.1-1.6-9.6-3.8-13.6-6.6l5.9-11.6c0.6,0.6,1.6,1.3,3.2,2.3c1.5,0.9,3.3,1.9,5.4,2.8
		c2.1,0.9,4.4,1.7,6.9,2.4c2.5,0.6,5.1,1,7.8,1c7.4,0,11.1-2.4,11.1-7.1c0-1.5-0.4-2.8-1.3-3.8c-0.8-1-2-1.9-3.6-2.7
		c-1.6-0.8-3.4-1.5-5.6-2.1c-2.2-0.6-4.7-1.4-7.4-2.1c-3.3-0.9-6.2-1.9-8.6-3c-2.4-1.1-4.5-2.3-6.1-3.8c-1.6-1.5-2.8-3.1-3.6-5.1
		c-0.8-1.9-1.2-4.2-1.2-6.9c0-3.5,0.6-6.6,1.9-9.3c1.3-2.7,3.1-5,5.4-6.8c2.3-1.8,5-3.2,8-4.1c3-0.9,6.3-1.4,9.8-1.4
		c4.9,0,9.3,0.8,13.4,2.3c4.1,1.5,7.6,3.3,10.7,5.4L853.4,23.4z"/>
</g>
</svg>
