<?xml version="1.0" encoding="utf-8"?>
<!-- Generator: Adobe Illustrator 22.1.0, SVG Export Plug-In . SVG Version: 6.00 Build 0)  -->
<svg version="1.1" id="Layer_1" xmlns="http://www.w3.org/2000/svg" xmlns:xlink="http://www.w3.org/1999/xlink" x="0px" y="0px"
	 viewBox="0 0 390 270.3" style="enable-background:new 0 0 390 270.3;" xml:space="preserve">
<style type="text/css">
	.st0{fill:#FFFFFF;}
</style>
<g>
	<path class="st0" d="M71.6,23.4c-0.5-0.5-1.3-1.1-2.5-1.8c-1.2-0.8-2.7-1.5-4.4-2.3c-1.7-0.7-3.6-1.4-5.6-1.9S55,16.6,53,16.6
		c-3.7,0-6.5,0.7-8.3,2C42.9,20,42,21.9,42,24.3c0,1.4,0.3,2.6,1,3.5c0.7,0.9,1.7,1.8,3,2.5c1.3,0.7,2.9,1.4,4.9,1.9
		c2,0.6,4.3,1.2,6.9,1.8c3.4,0.9,6.4,1.9,9.2,2.9c2.8,1,5.1,2.3,7,3.9c1.9,1.6,3.4,3.4,4.4,5.6c1,2.2,1.6,4.8,1.6,8
		c0,3.7-0.7,6.9-2.1,9.5c-1.4,2.6-3.3,4.8-5.6,6.4c-2.4,1.6-5.1,2.8-8.2,3.5c-3.1,0.7-6.3,1.1-9.7,1.1c-5.2,0-10.3-0.8-15.4-2.3
		c-5.1-1.6-9.6-3.8-13.6-6.6l5.9-11.6c0.6,0.6,1.6,1.3,3.2,2.3c1.5,0.9,3.3,1.9,5.4,2.8c2.1,0.9,4.4,1.7,6.9,2.4
		c2.5,0.6,5.1,1,7.8,1c7.4,0,11.1-2.4,11.1-7.1c0-1.5-0.4-2.8-1.3-3.8c-0.8-1-2-1.9-3.6-2.7s-3.4-1.5-5.6-2.1
		c-2.2-0.6-4.7-1.4-7.4-2.1c-3.3-0.9-6.2-1.9-8.6-3s-4.5-2.3-6.1-3.8c-1.6-1.5-2.8-3.1-3.6-5.1c-0.8-1.8-1.2-4-1.2-6.7
		c0-3.5,0.6-6.6,1.9-9.3s3.1-5,5.4-6.8c2.3-1.8,5-3.2,8-4.1s6.3-1.4,9.8-1.4c4.9,0,9.3,0.8,13.4,2.3s7.6,3.3,10.7,5.4L71.6,23.4z"/>
	<path class="st0" d="M112.3,5.5h12.4l7.8,22.9l7.7-22.9h12.4l-11.8,31.4l8.8,22.1l19.6-53.7h14.6l-28.1,69h-11.3l-12-29l-12,29
		h-11.2l-27.9-69h14.4L115.3,59l8.6-22.1L112.3,5.5z"/>
	<path class="st0" d="M238.9,62.6v11.8H191v-69h47.1v11.8h-33.6v16.6h29.1v10.9h-29.1v18h34.4V62.6z"/>
	<path class="st0" d="M269.1,5.3H281l26.3,69h-13.8l-6.4-17.2H263l-6.3,17.2h-13.8L269.1,5.3z M284.5,47.7L275,20.6l-9.9,27.1H284.5
		z"/>
	<path class="st0" d="M359.5,17.1h-22.1v57.3h-13.3V17.1H302V5.3h57.5V17.1z"/>
	<path class="st0" d="M209.1,112.9c-0.6,0-1.7-0.9-3.3-0.9c-9.6,0-20.5,18.6-26,28.3c-0.6,1.1-1.2,2.1-1.7,2.9
		c4.4-5.9,15-14.2,20.7-14.2c2.5,0,3.5,1.5,3.5,2.9c0,3-8.7,13.4-8.7,17.9c0,1.2,0.7,1.7,1.8,1.7c3.9,0,9.1-3.6,10-3.6
		c0.4,0,0.7,0.2,0.7,0.5c0,0.5-0.6,1.2-2.1,2l-0.4,0.2c-3.4,1.8-9.7,5-13.1,5c-4,0-5.1-2-5.1-4.5c0-2.7,1.4-5.8,2.2-7.4
		c1-1.9,2.1-4,3.8-7.1c0.4-0.8,0.6-1.3,0.6-1.6c0-0.2-0.1-0.4-0.4-0.4c-0.4,0-1.2,0.4-1.8,0.8c-8.5,4.8-14.9,14.4-17.7,18.9
		c-0.6,0.9-1.7,1.4-2.9,1.4c-2,0-3-1.2-3-2.7s1.7-4.8,1.7-4.8l0.6-1.2c2.7-4.9,7.1-12.9,9.2-16.2c-2.1,1.1-5.2,1.2-7.9,1.2h-3.9
		c-4,5.8-5.8,8.8-8.4,13c-2.8,4.5-5.9,12.5-6,12.5s-0.3,0-0.4-0.1c-0.6-0.3-3.1-1.7-3.1-6.1c0-1.7,0.4-4.3,2.6-8.3
		c2.1-4,4.5-7.4,6.9-11.2c-0.2,0-0.6,0.1-1,0.1c-0.9,0-2.2-0.3-2.2-2.2c0-0.6,0.1-1.2,0.6-1.2c1.4,0,2.4,0.4,4.4,0.4
		c3.5-4.3,7.3-10.7,11.7-10.7c2.7,0,3.8,0.9,3.8,1.7c0,0.3-0.1,0.6-0.4,0.8c-2.6,2.7-5.3,6.6-6.7,8.6c0.9,0.1,1.9,0.1,3.1,0.1h0.6
		c3.2,0,6.9,0,8.9-2.8c6.4-9.1,14.6-17.5,23.3-17.5h0.9c1,0,5,0.3,5,2.1C209.7,112.6,209.6,112.9,209.1,112.9z"/>
	<path class="st0" d="M233.9,148.9c0,1.1-4,3.1-7.2,4.5c-2.2,1-8.5,2.9-13.7,2.9c-4.4,0-8.2-1.2-8.2-5.3c0-5.5,4-10.7,6.8-13.6
		c4.5-4.8,10.7-9.1,17.4-9.1c2.4,0,4.3,0.9,4.3,3.7c0,5-8.3,10.9-16.3,10.9c-0.3,0-0.6-0.1-0.9-0.1c-1.2,2.1-2.5,4.7-2.5,6.7
		c0,1.9,1.2,3.3,4.9,3.3c4,0,9.4-1.9,13.2-4.1c0.5-0.3,1.1-0.8,1.6-0.8c0.1,0,0.1,0.1,0.3,0.1C233.8,148.4,233.9,148.6,233.9,148.9z
		 M228.7,131.4c-2.6,0-8.6,4.6-11.5,9.1c0.2,0,0.4,0.1,0.6,0.1c2.8,0,5.5-1.7,7.7-3.2c1.2-0.7,4.2-4.1,4.2-5.3c0-0.1,0-0.3-0.1-0.4
		C229.6,131.6,229.2,131.4,228.7,131.4z"/>
	<path class="st0" d="M5.1,270.3v-69h25.1c5.6,0,10.6,0.9,14.8,2.7s7.8,4.3,10.6,7.4c2.9,3.1,5,6.8,6.4,10.9
		c1.4,4.2,2.1,8.6,2.1,13.4c0,5.3-0.8,10-2.4,14.2c-1.6,4.2-3.9,7.9-6.9,10.9c-3,3-6.6,5.3-10.7,7c-4.1,1.7-8.9,2.5-14.1,2.5H5.1z
		 M50.7,235.7c0-3.3-0.5-6.4-1.4-9.1c-0.9-2.8-2.2-5.2-4-7.2s-3.9-3.6-6.5-4.7c-2.6-1.1-5.5-1.7-8.7-1.7H18.4v45.5h11.7
		c3.3,0,6.2-0.6,8.8-1.8c2.6-1.2,4.7-2.8,6.4-4.8s3-4.5,3.9-7.2C50.3,242,50.7,239,50.7,235.7z"/>
	<path class="st0" d="M122.7,258.6v11.8H74.8v-69h47.1v11.8H88.3v16.6h29v10.9H88.2v18h34.5V258.6z"/>
	<path class="st0" d="M184.9,213.1h-22.1v57.3h-13.3v-57.3h-22.1v-11.8h57.5L184.9,213.1L184.9,213.1z"/>
	<path class="st0" d="M206.2,201.3h11.9l26.3,69h-13.8l-6.4-17.2h-24.1l-6.3,17.2h-13.8L206.2,201.3z M221.7,243.7l-9.5-27.1
		l-9.9,27.1H221.7z"/>
	<path class="st0" d="M252,270.3v-69h13.4v69H252z"/>
	<path class="st0" d="M279.8,270.3v-69h13.4v57.3h35.2v11.8h-48.6V270.3z"/>
	<path class="st0" d="M377.8,219.4c-0.5-0.5-1.3-1.1-2.5-1.8c-1.2-0.8-2.7-1.5-4.4-2.3c-1.7-0.7-3.6-1.4-5.6-1.9s-4.1-0.8-6.1-0.8
		c-3.7,0-6.5,0.7-8.3,2c-1.8,1.4-2.7,3.3-2.7,5.7c0,1.4,0.3,2.6,1,3.5s1.7,1.8,3,2.5s2.9,1.4,4.9,1.9c2,0.6,4.3,1.2,6.9,1.8
		c3.4,0.9,6.4,1.9,9.2,2.9s5.1,2.3,7,3.9c1.9,1.6,3.4,3.4,4.4,5.6s1.6,4.8,1.6,8c0,3.7-0.7,6.9-2.1,9.5c-1.4,2.6-3.3,4.8-5.6,6.4
		c-2.4,1.6-5.1,2.8-8.2,3.5c-3.1,0.7-6.3,1.1-9.7,1.1c-5.2,0-10.3-0.8-15.4-2.3c-5.1-1.6-9.6-3.8-13.6-6.6l5.9-11.6
		c0.6,0.6,1.6,1.3,3.2,2.3c1.5,0.9,3.3,1.9,5.4,2.8c2.1,0.9,4.4,1.7,6.9,2.4c2.5,0.6,5.1,1,7.8,1c7.4,0,11.1-2.4,11.1-7.1
		c0-1.5-0.4-2.8-1.3-3.8c-0.8-1-2-1.9-3.6-2.7s-3.4-1.5-5.6-2.1c-2.2-0.6-4.7-1.4-7.4-2.1c-3.3-0.9-6.2-1.9-8.6-3
		c-2.4-1.1-4.5-2.3-6.1-3.8s-2.8-3.1-3.6-5.1c-0.8-1.9-1.2-4.2-1.2-6.9c0-3.5,0.6-6.6,1.9-9.3c1.3-2.7,3.1-5,5.4-6.8
		c2.3-1.8,5-3.2,8-4.1s6.3-1.4,9.8-1.4c4.9,0,9.3,0.8,13.4,2.3c4.1,1.5,7.6,3.3,10.7,5.4L377.8,219.4z"/>
</g>
</svg>
